{
    "name": "Tests",
    "references": [
        "UnityEngine.TestRunner",
        "UnityEditor.TestRunner",
        "GameAssembly",
        "MoqAssembly"
    ],
    "includePlatforms": [],
    "excludePlatforms": [],
    "allowUnsafeCode": false,
    "overrideReferences": true,
    "precompiledReferences": [
        "nunit.framework.dll",
        "Moq.dll",
        "System.Runtime.CompilerServices.Unsafe.dll",
        "System.Threading.Tasks.Extensions.dll",
        "Castle.Core.dll"
    ],
    "autoReferenced": false,
    "defineConstraints": [
        "UNITY_INCLUDE_TESTS"
    ],
    "versionDefines": []
}